3/30/2020 1:06:18 PM ==> Setting time out : 3000
3/30/2020 1:06:19 PM ==> Got Token Successful
3/30/2020 1:06:19 PM ==> Got Agent Application Api Response
3/30/2020 1:06:21 PM ==> Eligibility Api Response...: Success
3/30/2020 1:06:21 PM ==> Post status start button cmdStart_Click
3/30/2020 1:06:21 PM ==> Post Status Api Response when start button click...: Success
3/30/2020 1:06:27 PM ==> Timer Start
3/30/2020 1:06:27 PM ==> Taking screenshot... OS : {0}  Win32NT
3/30/2020 1:06:27 PM ==> Timer tick form timer1_Tick...
3/30/2020 1:06:27 PM ==> Process Running : Calculator
3/30/2020 1:06:27 PM ==> Process Running : ISOProcessor - Microsoft Visual Studio
3/30/2020 1:06:27 PM ==> Process Running : Microsoft Edge
3/30/2020 1:06:27 PM ==> Process Running : Microsoft Text Input Application
3/30/2020 1:06:27 PM ==> Process Running : APIFunction.cs [Read Only] - Microsoft Visual Studio
3/30/2020 1:06:27 PM ==> Process Running : Asma Akter | Microsoft Teams
3/30/2020 1:06:27 PM ==> Process Running : Settings
3/30/2020 1:06:27 PM ==> Process Running : Skype
3/30/2020 1:06:27 PM ==> Process Running : 666369465 - AnyDesk
3/30/2020 1:06:27 PM ==> Process Running : Sent Items - shafkat.haider@sslwireless.com - Outlook
3/30/2020 1:06:27 PM ==> Process Running : Telegram
3/30/2020 1:06:27 PM ==> Process Running : SSL Ebuddy - Google Chrome
3/30/2020 1:06:27 PM ==> Process Running : E Buddy Desktop Tracker
3/30/2020 1:06:27 PM ==> Process Running : Calculator
3/30/2020 1:06:27 PM ==> Process Running : Microsoft Edge
3/30/2020 1:06:27 PM ==> Process Running : WFH (Debugging) - Microsoft Visual Studio
3/30/2020 1:06:27 PM ==> Log Minute Api Response...: Not sent 0
3/30/2020 1:06:27 PM ==> File deleted
3/30/2020 1:06:32 PM ==> File Upload Api Response...: Success
3/30/2020 1:06:32 PM ==> Done Sent sc
3/30/2020 1:06:36 PM ==> Total Logged Time : 117
3/30/2020 1:06:36 PM ==> Log Time Api Response...: Success
3/30/2020 1:06:42 PM ==> Timer Enabled True...
3/30/2020 1:06:48 PM ==> Timer Start
3/30/2020 1:06:51 PM ==> Taking screenshot... OS : {0}  Win32NT
3/30/2020 1:06:52 PM ==> Timer tick form timer1_Tick...
3/30/2020 1:06:54 PM ==> Process Running : Calculator
3/30/2020 1:06:54 PM ==> Process Running : ISOProcessor - Microsoft Visual Studio
3/30/2020 1:06:54 PM ==> Process Running : Microsoft Edge
3/30/2020 1:06:54 PM ==> Process Running : Microsoft Text Input Application
3/30/2020 1:06:54 PM ==> Process Running : APIFunction.cs [Read Only] - Microsoft Visual Studio
3/30/2020 1:06:54 PM ==> Process Running : Asma Akter | Microsoft Teams
3/30/2020 1:06:54 PM ==> Process Running : Settings
3/30/2020 1:06:54 PM ==> Process Running : Skype
3/30/2020 1:06:54 PM ==> Process Running : 666369465 - AnyDesk
3/30/2020 1:06:54 PM ==> Process Running : Sent Items - shafkat.haider@sslwireless.com - Outlook
3/30/2020 1:06:54 PM ==> Process Running : Telegram
3/30/2020 1:06:54 PM ==> Process Running : SSL Ebuddy - Google Chrome
3/30/2020 1:06:54 PM ==> Process Running : E Buddy Desktop Tracker
3/30/2020 1:06:54 PM ==> Process Running : Calculator
3/30/2020 1:06:54 PM ==> Process Running : Microsoft Edge
3/30/2020 1:06:54 PM ==> Process Running : WFH (Debugging) - Microsoft Visual Studio
3/30/2020 1:06:54 PM ==> Log Minute Api Response...: Not sent 0
3/30/2020 1:07:04 PM ==> Total Logged Time : 117
3/30/2020 1:07:05 PM ==> Log Time Api Response...: Success
3/30/2020 1:40:54 PM ==> Setting time out : 3000
3/30/2020 1:40:55 PM ==> Got Token Successful
3/30/2020 1:40:55 PM ==> Got Agent Application Api Response
3/30/2020 1:42:17 PM ==> Setting time out : 3000
3/30/2020 1:42:18 PM ==> Got Token Successful
3/30/2020 1:42:19 PM ==> Got Agent Application Api Response
3/30/2020 1:42:21 PM ==> Eligibility Api Response...: Success
3/30/2020 1:42:21 PM ==> Post status start button cmdStart_Click
3/30/2020 1:42:21 PM ==> Post Status Api Response when start button click...: Success
3/30/2020 1:42:29 PM ==> Timer Start
3/30/2020 1:42:32 PM ==> Taking screenshot... OS : {0}  Win32NT
3/30/2020 1:42:33 PM ==> Timer tick form timer1_Tick...
3/30/2020 1:42:39 PM ==> Process Running : Calculator
3/30/2020 1:42:39 PM ==> Process Running : ISOProcessor - Microsoft Visual Studio
3/30/2020 1:42:39 PM ==> Process Running : Microsoft Edge
3/30/2020 1:42:39 PM ==> Process Running : Microsoft Text Input Application
3/30/2020 1:42:39 PM ==> Process Running : Ashekur Rahman | Microsoft Teams
3/30/2020 1:42:39 PM ==> Process Running : Settings
3/30/2020 1:42:39 PM ==> Process Running : Skype
3/30/2020 1:42:39 PM ==> Process Running : E Buddy Desktop Tracker
3/30/2020 1:42:39 PM ==> Process Running : C:\Users\shafkat.haider\Downloads\Telegram Desktop\bulk_dynamic_sms\src\com\ssl\user\req_response\BulkSmsRequestBody.java - Notepad++
3/30/2020 1:42:39 PM ==> Process Running : ISMS_API - Microsoft Visual Studio
3/30/2020 1:42:39 PM ==> Process Running : Sent Items - shafkat.haider@sslwireless.com - Outlook
3/30/2020 1:42:39 PM ==> Process Running : Telegram
3/30/2020 1:42:39 PM ==> Process Running : NuGet Gallery | GoogleGson 2.8.5 - Google Chrome
3/30/2020 1:42:39 PM ==> Process Running : Calculator
3/30/2020 1:42:39 PM ==> Process Running : Microsoft Edge
3/30/2020 1:42:39 PM ==> Process Running : WFH (Debugging) - Microsoft Visual Studio
3/30/2020 1:42:40 PM ==> Log Minute Api Response...: Not sent 0
3/30/2020 1:42:46 PM ==> File deleted
3/30/2020 1:42:50 PM ==> File Upload Api Response...: Success
3/30/2020 1:42:52 PM ==> Done Sent sc
3/30/2020 1:43:03 PM ==> Total Logged Time : 147
3/30/2020 1:43:03 PM ==> Log Time Api Response...: Success
3/30/2020 1:43:17 PM ==> Timer Enabled True...
3/30/2020 1:43:30 PM ==> Timer Start
3/30/2020 1:43:33 PM ==> Taking screenshot... OS : {0}  Win32NT
3/30/2020 1:43:33 PM ==> Timer tick form timer1_Tick...
3/30/2020 1:43:37 PM ==> Process Running : Calculator
3/30/2020 1:43:37 PM ==> Process Running : ISOProcessor - Microsoft Visual Studio
3/30/2020 1:43:37 PM ==> Process Running : Microsoft Edge
3/30/2020 1:43:37 PM ==> Process Running : Microsoft Text Input Application
3/30/2020 1:43:37 PM ==> Process Running : Ashekur Rahman | Microsoft Teams
3/30/2020 1:43:37 PM ==> Process Running : Settings
3/30/2020 1:43:37 PM ==> Process Running : Skype
3/30/2020 1:43:37 PM ==> Process Running : E Buddy Desktop Tracker
3/30/2020 1:43:37 PM ==> Process Running : C:\Users\shafkat.haider\Downloads\Telegram Desktop\bulk_dynamic_sms\src\com\ssl\user\req_response\BulkSmsRequestBody.java - Notepad++
3/30/2020 1:43:37 PM ==> Process Running : ISMS_API - Microsoft Visual Studio
3/30/2020 1:43:37 PM ==> Process Running : Sent Items - shafkat.haider@sslwireless.com - Outlook
3/30/2020 1:43:37 PM ==> Process Running : Telegram
3/30/2020 1:43:37 PM ==> Process Running : NuGet Gallery | GoogleGson 2.8.5 - Google Chrome
3/30/2020 1:43:37 PM ==> Process Running : Calculator
3/30/2020 1:43:37 PM ==> Process Running : Microsoft Edge
3/30/2020 1:43:37 PM ==> Process Running : WFH (Debugging) - Microsoft Visual Studio
3/30/2020 1:43:38 PM ==> {"code":201,"messages":["Success"],"data":{"emp_id":"1548","date":"2020-03-30","started_at":"13:42","ended_at":"13:43","logged_time":"1","process_list":"Calculator,ISOProcessor - Microsoft Visual Studio,Microsoft Edge,Microsoft Text Input Application,Ashekur Rahman | Microsoft Teams,Settings,Skype,E Buddy Desktop Tracker,C:Usersshafkat.haiderDownloadsTelegram Desktopbulk_dynamic_smssrccomssluserreq_responseBulkSmsRequestBody.java - Notepad++,ISMS_API - Microsoft Visual Studio,Sent Items - shafkat.haider@sslwireless.com - Outlook,Telegram,NuGet Gallery | GoogleGson 2.8.5 - Google Chrome,Calculator,Microsoft Edge,WFH (Debugging) - Microsoft Visual Studio,","updated_at":"2020-03-30 13:43:29","created_at":"2020-03-30 13:43:29","id":7811}}
3/30/2020 1:43:38 PM ==> Log time sent..
3/30/2020 1:43:38 PM ==> Log Minute Api Response...: Success
3/30/2020 1:43:55 PM ==> Total Logged Time : 148
3/30/2020 1:43:56 PM ==> Log Time Api Response...: Success
3/30/2020 1:45:06 PM ==> Timer Enabled True...
3/30/2020 1:46:55 PM ==> Setting time out : 3000
3/30/2020 1:46:55 PM ==> Got Token Successful
3/30/2020 1:46:56 PM ==> Got Agent Application Api Response
3/30/2020 1:46:57 PM ==> Eligibility Api Response...: Success
3/30/2020 1:46:57 PM ==> Post status start button cmdStart_Click
3/30/2020 1:46:58 PM ==> Post Status Api Response when start button click...: Success
3/30/2020 1:46:58 PM ==> Timer Start
3/30/2020 1:46:58 PM ==> Taking screenshot... OS : {0}  Win32NT
3/30/2020 1:46:58 PM ==> Timer tick form timer1_Tick...
3/30/2020 1:46:58 PM ==> Process Running : Calculator
3/30/2020 1:46:58 PM ==> Process Running : ISOProcessor - Microsoft Visual Studio
3/30/2020 1:46:58 PM ==> Process Running : Microsoft Edge
3/30/2020 1:46:58 PM ==> Process Running : E Buddy Desktop Tracker
3/30/2020 1:46:58 PM ==> Process Running : Microsoft Text Input Application
3/30/2020 1:46:58 PM ==> Process Running : Ashekur Rahman | Microsoft Teams
3/30/2020 1:46:58 PM ==> Process Running : Settings
3/30/2020 1:46:58 PM ==> Process Running : Skype
3/30/2020 1:46:58 PM ==> Process Running : C:\Users\shafkat.haider\Downloads\Telegram Desktop\bulk_dynamic_sms\src\com\ssl\user\req_response\BulkSmsRequestBody.java - Notepad++
3/30/2020 1:46:58 PM ==> Process Running : ISMS_API - Microsoft Visual Studio
3/30/2020 1:46:58 PM ==> Process Running : Sent Items - shafkat.haider@sslwireless.com - Outlook
3/30/2020 1:46:58 PM ==> Process Running : Telegram
3/30/2020 1:46:58 PM ==> Process Running : NuGet Gallery | GoogleGson 2.8.5 - Google Chrome
3/30/2020 1:46:58 PM ==> Process Running : Calculator
3/30/2020 1:46:58 PM ==> Process Running : Microsoft Edge
3/30/2020 1:46:58 PM ==> Process Running : WFH - Microsoft Visual Studio
3/30/2020 1:46:58 PM ==> Log Minute Api Response...: Not sent 0
3/30/2020 1:46:58 PM ==> File deleted
3/30/2020 1:47:00 PM ==> File Upload Api Response...: Success
3/30/2020 1:47:00 PM ==> Done Sent sc
3/30/2020 1:47:00 PM ==> Total Logged Time : 153
3/30/2020 1:47:00 PM ==> Log Time Api Response...: Success
3/30/2020 1:47:00 PM ==> Timer Enabled True...
