3/30/2020 1:06:18 PM ==> Setting time out : 3000
3/30/2020 1:06:19 PM ==> Got Token Successful
3/30/2020 1:06:19 PM ==> Got Agent Application Api Response
3/30/2020 1:06:21 PM ==> Eligibility Api Response...: Success
3/30/2020 1:06:21 PM ==> Post status start button cmdStart_Click
3/30/2020 1:06:21 PM ==> Post Status Api Response when start button click...: Success
3/30/2020 1:06:27 PM ==> Timer Start
3/30/2020 1:06:27 PM ==> Taking screenshot... OS : {0}  Win32NT
3/30/2020 1:06:27 PM ==> Timer tick form timer1_Tick...
3/30/2020 1:06:27 PM ==> Process Running : Calculator
3/30/2020 1:06:27 PM ==> Process Running : ISOProcessor - Microsoft Visual Studio
3/30/2020 1:06:27 PM ==> Process Running : Microsoft Edge
3/30/2020 1:06:27 PM ==> Process Running : Microsoft Text Input Application
3/30/2020 1:06:27 PM ==> Process Running : APIFunction.cs [Read Only] - Microsoft Visual Studio
3/30/2020 1:06:27 PM ==> Process Running : Asma Akter | Microsoft Teams
3/30/2020 1:06:27 PM ==> Process Running : Settings
3/30/2020 1:06:27 PM ==> Process Running : Skype
3/30/2020 1:06:27 PM ==> Process Running : 666369465 - AnyDesk
3/30/2020 1:06:27 PM ==> Process Running : Sent Items - shafkat.haider@sslwireless.com - Outlook
3/30/2020 1:06:27 PM ==> Process Running : Telegram
3/30/2020 1:06:27 PM ==> Process Running : SSL Ebuddy - Google Chrome
3/30/2020 1:06:27 PM ==> Process Running : E Buddy Desktop Tracker
3/30/2020 1:06:27 PM ==> Process Running : Calculator
3/30/2020 1:06:27 PM ==> Process Running : Microsoft Edge
3/30/2020 1:06:27 PM ==> Process Running : WFH (Debugging) - Microsoft Visual Studio
3/30/2020 1:06:27 PM ==> Log Minute Api Response...: Not sent 0
3/30/2020 1:06:27 PM ==> File deleted
3/30/2020 1:06:32 PM ==> File Upload Api Response...: Success
3/30/2020 1:06:32 PM ==> Done Sent sc
3/30/2020 1:06:36 PM ==> Total Logged Time : 117
3/30/2020 1:06:36 PM ==> Log Time Api Response...: Success
3/30/2020 1:06:42 PM ==> Timer Enabled True...
3/30/2020 1:06:48 PM ==> Timer Start
3/30/2020 1:06:51 PM ==> Taking screenshot... OS : {0}  Win32NT
3/30/2020 1:06:52 PM ==> Timer tick form timer1_Tick...
3/30/2020 1:06:54 PM ==> Process Running : Calculator
3/30/2020 1:06:54 PM ==> Process Running : ISOProcessor - Microsoft Visual Studio
3/30/2020 1:06:54 PM ==> Process Running : Microsoft Edge
3/30/2020 1:06:54 PM ==> Process Running : Microsoft Text Input Application
3/30/2020 1:06:54 PM ==> Process Running : APIFunction.cs [Read Only] - Microsoft Visual Studio
3/30/2020 1:06:54 PM ==> Process Running : Asma Akter | Microsoft Teams
3/30/2020 1:06:54 PM ==> Process Running : Settings
3/30/2020 1:06:54 PM ==> Process Running : Skype
3/30/2020 1:06:54 PM ==> Process Running : 666369465 - AnyDesk
3/30/2020 1:06:54 PM ==> Process Running : Sent Items - shafkat.haider@sslwireless.com - Outlook
3/30/2020 1:06:54 PM ==> Process Running : Telegram
3/30/2020 1:06:54 PM ==> Process Running : SSL Ebuddy - Google Chrome
3/30/2020 1:06:54 PM ==> Process Running : E Buddy Desktop Tracker
3/30/2020 1:06:54 PM ==> Process Running : Calculator
3/30/2020 1:06:54 PM ==> Process Running : Microsoft Edge
3/30/2020 1:06:54 PM ==> Process Running : WFH (Debugging) - Microsoft Visual Studio
3/30/2020 1:06:54 PM ==> Log Minute Api Response...: Not sent 0
3/30/2020 1:07:04 PM ==> Total Logged Time : 117
3/30/2020 1:07:05 PM ==> Log Time Api Response...: Success
